{
  "connection": "default",
  "collectionName": "projects",
  "info": {
    "name": "project",
    "description": ""
  },
  "options": {
    "increments": true,
    "timestamps": [
      "created_at",
      "updated_at"
    ],
    "comment": ""
  },
  "attributes": {
    "name": {
      "type": "string"
    },
    "type": {
      "enum": [
        "Personal",
        "Work",
        "Freelance"
      ],
      "type": "enumeration"
    },
    "cover_image": {
      "model": "file",
      "via": "related",
      "plugin": "upload",
      "required": false
    },
    "content": {
      "type": "richtext"
    },
    "keywords": {
      "collection": "keyword",
      "via": "projects",
      "dominant": true
    },
    "slug": {
      "type": "string",
      "required": true
    }
  }
}
